{
    "name": "stopt",
    "version": "5.0",
    "dependencies": [
        {
            "name": "python3",
            "version>=": "3.8.3#2"
        },
      "pybind11",
       "boost", 
       "boost-mpi",
       "osi",
       "clp",
	"coinutils",
	"eigen3"
    ],
    "builtin-baseline": "69478c5caafcde4c490bb1fccb960296801dbb5f",

     "overrides": [
        { "name": "python3", "version": "3.8.3#2" }
    ]

}
